Assignment 8 - Iteration
…
Code

soyk_5 <- pivot_longer(soyk_4,
                       names_to = "location.k",
                       values_to = "k_pct",
                       cols = contains("k_pct")
                       )

soyk_5

# A tibble: 64 × 8
    plot   trt stage k_rate_lbac k_rate_kgha   rep location.k         k_pct
   <dbl> <dbl> <chr>       <dbl>       <dbl> <dbl> <chr>              <dbl>
 1   105     1 R4              0           0     1 tifton_k_pct       2.63 
 2   105     1 R4              0           0     1 midville_k_pct     1.17 
 3   105     1 R4              0           0     1 watkinsville_k_pct 3.21 
 4   105     1 R4              0           0     1 macon_k_pct        0.814
 5   203     1 R4              0           0     2 tifton_k_pct       2.76 
 6   203     1 R4              0           0     2 midville_k_pct     1.22 
 7   203     1 R4              0           0     2 watkinsville_k_pct 2.9  
 8   203     1 R4              0           0     2 macon_k_pct        0.902
 9   305     1 R4              0           0     3 tifton_k_pct       2.79 
10   305     1 R4              0           0     3 midville_k_pct     1.32 
# ℹ 54 more rows

Code

soyk_w <- separate (soyk_5,
                    location.k,
                    into= c("location", "k", "pct")
                    )

soyk_w

# A tibble: 64 × 10
    plot   trt stage k_rate_lbac k_rate_kgha   rep location    k     pct   k_pct
   <dbl> <dbl> <chr>       <dbl>       <dbl> <dbl> <chr>       <chr> <chr> <dbl>
 1   105     1 R4              0           0     1 tifton      k     pct   2.63 
 2   105     1 R4              0           0     1 midville    k     pct   1.17 
 3   105     1 R4              0           0     1 watkinsvil… k     pct   3.21 
 4   105     1 R4              0           0     1 macon       k     pct   0.814
 5   203     1 R4              0           0     2 tifton      k     pct   2.76 
 6   203     1 R4              0           0     2 midville    k     pct   1.22 
 7   203     1 R4              0           0     2 watkinsvil… k     pct   2.9  
 8   203     1 R4              0           0     2 macon       k     pct   0.902
 9   305     1 R4              0           0     3 tifton      k     pct   2.79 
10   305     1 R4              0           0     3 midville    k     pct   1.32 
# ℹ 54 more rows
…
